%YAML 1.1
%TAG !u! tag:unity3d.com,2011:
--- !u!114 &11400000
MonoBehaviour:
  m_ObjectHideFlags: 0
  m_CorrespondingSourceObject: {fileID: 0}
  m_PrefabInstance: {fileID: 0}
  m_PrefabAsset: {fileID: 0}
  m_GameObject: {fileID: 0}
  m_Enabled: 1
  m_EditorHideFlags: 0
  m_Script: {fileID: 11500000, guid: 635ca3a89b644ab44b888c22da8eae56, type: 3}
  m_Name: Rgt
  m_EditorClassIdentifier: 
  Location:
    Latitude: 56.96098
    Longitude: 24.132709
    Altitude: 0
    AltitudeMode: 0
    Label: 
